{
	"Id": "Policy1575287412939",
	"Version": "2012-10-17",
	"Statement": [
		{
			"Sid": "Stmt1575287149975",
			"Action": ["s3:GetObject"],
			"Effect": "Allow",
			"Resource": "arn:aws:s3:::app.dailyroots.co.za/*",
			"Principal": "*"
		}
	]
}
